Hockey Analytics: Predicting Goals and Finding the NHL’s Best Shooters
…
Group by player

3

Sum GOE

4

Select final columns

5

Sort by GOE descending

# A tibble: 905 × 4
   player                shots goals   GOE
   <chr>                 <int> <dbl> <dbl>
 1 Sam Reinhart            316    71  37.1
 2 Auston Matthews         395    72  30.6
 3 Zach Hyman              380    70  26.9
 4 Artemi Panarin          353    58  23.6
 5 Leon Draisaitl          292    52  21.5
 6 Brock Boeser            231    47  21.4
 7 Steven Stamkos          278    46  20.1
 8 Jonathan Marchessault   294    47  17.9
 9 Kirill Kaprizov         281    46  17.1
10 Valeri Nichushkin       183    38  17.0
# ℹ 895 more rows

We can see big scorers like Auston Matthews and Leon Draisatil appear on our list. However, there may be some issues with this model. Since we are only predicting on shot types, a wrist shot from the blue line and a wrist shot a foot away from the net will have the same chance of going in, according to this model.

Model 2

Model 2 will add more parameters than Model 1, and it will use logistic regression in order to predict expected goals. The parameters we will use for this model will be shot type, distance from the goal, and shot angle. Shot distance is measured in feet away from the goal. Shot angle is at 0 when a shot is taken directly in front of a goalie and goes to 90 when a shot is taken from the goal line on the right or the left. We will filter our data again by shots and goals and add a numerical goal column like we did in model 1.

pbp_model_2 <- pbp_train |> 
  dplyr::select(xg, season, description, event_type, event, secondary_type,shot_distance, shot_angle, event_player_1_name, event_player_1_id) |> 
  dplyr::filter(event_type %in% c("SHOT", "GOAL")) |> 
  dplyr::mutate(Y = ifelse(event_type == "GOAL", 1, 0))
pbp_model_2

# A tibble: 234,282 × 11
       xg season   description     event_type event secondary_type shot_distance
    <dbl> <chr>    <chr>           <chr>      <chr> <chr>                  <dbl>
 1 0.0204 20202021 Travis Konecny… SHOT       Shot  Wrist Shot              32.6
 2 0.0208 20202021 Evan Rodrigues… SHOT       Shot  Wrist Shot              47.2
 3 0.0148 20202021 Joel Farabee B… SHOT       Shot  Backhand                48.3
 4 0.0131 20202021 Evan Rodrigues… SHOT       Shot  Snap Shot               60.3
 5 0.171  20202021 Claude Giroux … SHOT       Shot  Slap Shot               36.9
 6 0.281  20202021 Philippe Myers… SHOT       Shot  Wrist Shot              19.2
 7 0.0130 20202021 Sam Lafferty W… SHOT       Shot  Wrist Shot              46.1
 8 0.0208 20202021 Travis Konecny… SHOT       Shot  Wrist Shot              41  
 9 0.285  20202021 Mark Jankowski… GOAL       Goal  Snap Shot                9.4
10 0.0245 20202021 Mike Matheson … SHOT       Shot  Wrist Shot              57  
# ℹ 234,272 more rows
# ℹ 4 more variables: shot_angle <dbl>, event_player_1_name <chr>,
#   event_player_1_id <int>, Y <dbl>
…
1

Predict expected goals for each shot using the model 2 fit; remove rows where prediction fails (NA)

2

Calculate GOE for each shot

3

Renaming column for clarity and select relevant columns

# A tibble: 905 × 4
   player                goals shots   GOE
   <chr>                 <dbl> <int> <dbl>
 1 Sam Reinhart             71   316  32.5
 2 Auston Matthews          72   395  26.4
 3 Artemi Panarin           58   353  26.1
 4 Leon Draisaitl           52   292  19.7
 5 Jonathan Marchessault    47   294  18.6
 6 Steven Stamkos           46   278  17.9
 7 Brock Boeser             47   231  17.1
 8 Brayden Point            49   245  16.5
 9 Kirill Kaprizov          46   281  16.3
10 Mikko Rantanen           47   307  15.5
# ℹ 895 more rows

Our list of leaders still has the big names like our model 1 list did. However, their goals over expected have appeared to decrease a little bit. This could be because they are getting less goals over expected for goals made close and in front of the goalie which are where most goals in hockey are scored from.

Model 3

Our third model will add 2 more predictors on top of what we used in model 2. In addition to shot type, shot distance, and shot angle we will also be using goalie save percentage for the goalie the shot was taken on, as well as the strength of the scoring team. Here we will begin filtering our data for this.

pbp_model_3 <- pbp_train |> 
  dplyr::select(xg, season, description, event_type, event, secondary_type, event_goalie_name, event_goalie_id, strength_code, strength, shot_distance, shot_angle, event_player_1_name, event_player_1_id) |> 
  dplyr::filter(event_type %in% c("SHOT", "GOAL"))
pbp_model_3

# A tibble: 234,282 × 14
       xg season   description event_type event secondary_type event_goalie_name
    <dbl> <chr>    <chr>       <chr>      <chr> <chr>          <chr>            
 1 0.0204 20202021 Travis Kon… SHOT       Shot  Wrist Shot     Tristan.Jarry    
 2 0.0208 20202021 Evan Rodri… SHOT       Shot  Wrist Shot     Carter.Hart      
 3 0.0148 20202021 Joel Farab… SHOT       Shot  Backhand       Tristan.Jarry    
 4 0.0131 20202021 Evan Rodri… SHOT       Shot  Snap Shot      Carter.Hart      
 5 0.171  20202021 Claude Gir… SHOT       Shot  Slap Shot      Tristan.Jarry    
 6 0.281  20202021 Philippe M… SHOT       Shot  Wrist Shot     Tristan.Jarry    
 7 0.0130 20202021 Sam Laffer… SHOT       Shot  Wrist Shot     Carter.Hart      
 8 0.0208 20202021 Travis Kon… SHOT       Shot  Wrist Shot     Tristan.Jarry    
 9 0.285  20202021 Mark Janko… GOAL       Goal  Snap Shot      Carter.Hart      
10 0.0245 20202021 Mike Mathe… SHOT       Shot  Wrist Shot     Carter.Hart      
# ℹ 234,272 more rows
# ℹ 7 more variables: event_goalie_id <int>, strength_code <chr>,
#   strength <chr>, shot_distance <dbl>, shot_angle <dbl>,
#   event_player_1_name <chr>, event_player_1_id <int>
…
goe_model_3 <- model_3_test |> 
  dplyr::group_by(event_player_1_name) |> 
  dplyr::summarise(
    GOE = sum(GOE_ON_PLAY),
    shots = n(),
    goals = sum(Y),
    .groups = "drop"
  ) |> 
  dplyr::mutate(GOE = round(GOE, 3)) |>
  dplyr::select(player = event_player_1_name, goals, shots, GOE) |> 
  dplyr::arrange(desc(GOE))
goe_model_3

# A tibble: 905 × 4
   player           goals shots   GOE
   <chr>            <dbl> <int> <dbl>
 1 Auston Matthews     71   394  24.3
 2 Sam Reinhart        68   313  21.7
 3 Artemi Panarin      54   348  19.9
 4 Leon Draisaitl      51   291  16.8
 5 Kirill Kaprizov     46   280  13.6
 6 Mikko Rantanen      46   305  13.2
 7 Steven Stamkos      45   277  13.0
 8 Nathan MacKinnon    55   454  12.9
 9 Filip Forsberg      50   364  12.6
10 J.T. Miller         40   225  12.3
# ℹ 895 more rows
…
1

Keeping only Matthews’ shots

2

Only Keeping goals

3

Sort by descending expected goals

# A tibble: 71 × 16
   description event_type event secondary_type event_goalie_name event_goalie_id
   <glue>      <chr>      <chr> <chr>          <chr>                       <int>
 1 Auston Mat… GOAL       goal  Backhand       Empty Net                      NA
 2 Auston Mat… GOAL       goal  Wrist Shot     Empty Net                      NA
 3 Auston Mat… GOAL       goal  Wrist Shot     Empty Net                      NA
 4 Auston Mat… GOAL       goal  Wrist Shot     Empty Net                      NA
 5 Auston Mat… GOAL       goal  Snap Shot      Ilya Sorokin              8478009
 6 Auston Mat… GOAL       goal  Deflected      Jake Allen                8474596
 7 Auston Mat… GOAL       goal  Snap Shot      Linus Ullmark             8476999
 8 Auston Mat… GOAL       goal  Wrist Shot     Marc-Andre Fleury         8470594
 9 Auston Mat… GOAL       goal  Backhand       Kevin Lankinen            8480947
10 Auston Mat… GOAL       goal  Snap Shot      Lukas Dostal              8480843
# ℹ 61 more rows
# ℹ 10 more variables: strength_code <chr>, strength <chr>,
#   shot_distance <dbl>, shot_angle <dbl>, event_player_1_name <chr>,
#   event_player_1_id <int>, Y <dbl>, sv_pct <dbl>, xg3 <dbl>,
#   GOE_ON_PLAY <dbl>
…
